[
	{
		"packageName":"cn.wps.xiaomi.abroad.lite",
		"versionCode":264
	},
	{
		"packageName":"com.android.soundrecorder",
		"versionCode":302218
	},
	{
		"packageName":"com.duokan.phone.remotecontroller",
		"versionCode":6336
	},
	{
		"packageName":"com.miui.calculator",
		"versionCode":201203677
	},
	{
		"packageName":"com.miui.compass",
		"versionCode":1301090
	},
	{
		"packageName":"com.miui.mediaeditor",
		"versionCode":18596
	},
	{
		"packageName":"com.miui.notes",
		"versionCode":525
	},
	{
		"packageName":"com.opera.browser.afin",
		"versionCode":1907317304
	},
	{
		"packageName":"com.xiaomi.midrop",
		"versionCode":33504
	}
]